/Users/namindu/JaspersoftWorkspace/Web2Test/src/main/java/com/jiat/web/util/ApplicatiolnProperties.java
/Users/namindu/JaspersoftWorkspace/Web2Test/src/main/java/com/jiat/web/model/SignUpProcess.java
/Users/namindu/JaspersoftWorkspace/Web2Test/src/main/java/com/jiat/web/Test.java
/Users/namindu/JaspersoftWorkspace/Web2Test/src/main/java/com/jiat/web/model/SigninProsess.java
/Users/namindu/JaspersoftWorkspace/Web2Test/src/main/java/com/jiat/web/model/UpdateProcess.java
/Users/namindu/JaspersoftWorkspace/Web2Test/src/main/java/com/jiat/web/db/DBConnection.java
/Users/namindu/JaspersoftWorkspace/Web2Test/src/main/java/com/jiat/web/model/DeleteProcess.java
